E2/simulation/qsim/HW2.msim.vcd
$comment
	File created using the following command:
		vcd file HW2.msim.vcd -direction
$end
$date
	Tue Apr 11 08:25:00 2023
$end
$version
	ModelSim Version 10.1d
$end
$timescale
	1ps
$end
$scope module final_vlg_vec_tst $end
$var reg 1 ! clear $end
$var reg 1 " clock $end
$var reg 1 # enter $end
$var reg 1 $ IN $end
$var reg 1 % out $end
$var reg 1 & T $end
$var wire 1 ' close $end
$var wire 1 ( open $end
$var wire 1 ) Q0 $end
$var wire 1 * Q1 $end
$var wire 1 + Q2 $end
$var wire 1 , Q3 $end
$var wire 1 - sampler $end
$scope module i1 $end
$var wire 1 . gnd $end
$var wire 1 / vcc $end
$var wire 1 0 unknown $end
$var tri1 1 1 devclrn $end
$var tri1 1 2 devpor $end
$var tri1 1 3 devoe $end
$var wire 1 4 open~output_o $end
$var wire 1 5 Q0~output_o $end
$var wire 1 6 close~output_o $end
$var wire 1 7 Q2~output_o $end
$var wire 1 8 Q1~output_o $end
$var wire 1 9 Q3~output_o $end
$var wire 1 : clock~input_o $end
$var wire 1 ; clock~inputclkctrl_outclk $end
$var wire 1 < IN~input_o $end
$var wire 1 = out~input_o $end
$var wire 1 > inst|inst19~0_combout $end
$var wire 1 ? clear~input_o $end
$var wire 1 @ clear~inputclkctrl_outclk $end
$var wire 1 A inst|inst19~q $end
$var wire 1 B inst|inst20~0_combout $end
$var wire 1 C inst|inst20~1_combout $end
$var wire 1 D inst|inst20~q $end
$var wire 1 E inst5~0_combout $end
$var wire 1 F inst7~combout $end
$var wire 1 G inst|inst18~0_combout $end
$var wire 1 H inst|inst18~q $end
$var wire 1 I inst|inst15~0_combout $end
$var wire 1 J inst|inst21~0_combout $end
$var wire 1 K inst|inst21~q $end
$var wire 1 L inst2~combout $end
$var wire 1 M T~input_o $end
$var wire 1 N enter~input_o $end
$var wire 1 O inst4~0_combout $end
$var wire 1 P inst4~1_combout $end
$var wire 1 Q inst4~q $end
$upscope $end
$upscope $end
$enddefinitions $end
#0
$dumpvars
0!
0"
0#
0$
0%
0&
1'
0(
0)
0*
0+
0,
x-
0.
1/
x0
11
12
13
04
05
16
07
08
09
0:
0;
0<
0=
0>
0?
0@
0A
1B
0C
0D
0E
0F
0G
0H
1I
0J
0K
0L
0M
0N
0O
0P
0Q
$end
#35000
1#
1N
0-
#40000
1$
1<
1-
0I
1F
0B
1G
#50000
1"
1:
1;
0-
1H
0G
1E
1>
15
1)
06
0'
#55000
1%
1=
1-
0F
1G
0>
#70000
1&
0#
1M
0N
0-
#80000
0$
0<
1-
1F
0G
#100000
0"
0:
0;
0-
#105000
1#
1N
1-
1O
1P
#110000
0%
0=
0-
0F
1G
#120000
1$
1<
1-
1F
0G
1>
#140000
0&
0#
0M
0N
0-
0O
0P
#150000
1"
1:
1;
1-
0H
1A
1G
05
18
0)
1*
#160000
0$
0<
0-
0F
0>
0G
1>
#165000
1%
1=
1-
1F
1G
0>
#175000
1#
1N
0-
#200000
0"
1$
0:
1<
0;
1-
0F
1>
0G
#210000
1&
0#
1M
0N
0-
#220000
0%
0=
1-
1F
1G
#240000
0$
0<
0-
0F
0>
0G
1>
#245000
1#
1N
1-
1O
1P
#250000
1"
1:
1;
0-
1Q
0O
14
1(
#275000
1%
1=
1-
1F
1G
0>
#280000
0&
1$
0#
0M
1<
0N
0-
0P
0F
1>
0G
#300000
0"
0:
0;
1-
#315000
1#
1N
0-
#320000
0$
0<
1-
1P
1F
1G
0>
#330000
0%
0=
0-
0F
0G
1>
#350000
1&
1"
0#
1M
1:
0N
1;
1-
#360000
1$
1<
0-
0P
1F
1G
#385000
1%
1#
1=
1N
1-
0F
0G
#400000
0"
0$
0:
0<
0;
0-
1P
1F
1G
0>
#420000
0&
0#
0M
0N
1-
#440000
0%
1$
0=
1<
0-
0P
1>
#450000
1"
1:
1;
1-
0Q
1H
0G
1B
0>
04
15
0(
1)
1C
#455000
1#
1N
0-
#480000
0$
0<
1-
0F
0B
1>
1G
0C
#490000
1&
0#
1M
0N
0-
#495000
1%
1=
1-
1F
0G
#500000
0"
0:
0;
0-
#520000
1$
1<
1-
0F
1B
0>
1G
1>
#525000
1#
1N
0-
1O
1P
#550000
0%
1"
0=
1:
1;
1-
1F
0G
1C
0>
1Q
0O
14
1(
0P
#560000
0&
0$
0#
0M
0<
0N
0-
1P
0F
0B
1>
1G
0C
#595000
1#
1N
1-
#600000
0"
1$
0:
1<
0;
0-
0P
1F
1B
0G
1C
0>
#605000
1%
1=
1-
0F
1G
0C
1>
#630000
1&
0#
1M
0N
0-
#640000
0$
0<
1-
1P
1F
0B
0G
#650000
1"
1:
1;
0-
0H
1G
0>
05
0)
#660000
0%
0=
1-
0F
0G
1>
#665000
1#
1N
0-
#680000
1$
1<
1-
0P
1F
1G
#700000
0&
0"
0#
0M
0:
0N
0;
0-
#715000
1%
1=
1-
0F
0G
#720000
0$
0<
0-
1P
1F
1G
0>
#735000
1#
1N
1-
#750000
1"
1:
1;
0-
1H
0A
0G
15
08
1)
0*
#760000
1$
1<
1-
0P
0F
1>
1G
0>
#770000
1&
0%
0#
1M
0=
0N
0-
1F
0G
1>
#800000
0"
0$
0:
0<
0;
1-
1P
0F
0>
1G
#805000
1#
1N
0-
#825000
1%
1=
1-
1F
0G
#840000
0&
1$
0#
0M
1<
0N
0-
0P
0F
1>
1G
0>
#850000
1"
1:
1;
1-
0Q
04
0(
#875000
1#
1N
0-
#880000
0%
0$
0=
0<
1-
#900000
0"
0:
0;
0-
#910000
1&
0#
1M
0N
1-
#920000
1$
1<
0-
1F
0G
1>
#935000
1%
1=
1-
0F
1G
0>
#945000
1#
1N
0-
1O
1P
#950000
1"
1:
1;
1-
1Q
0O
14
1(
0P
#960000
0$
0<
0-
1P
1F
0G
#980000
0&
0#
0M
0N
1-
#990000
0%
0=
0-
0F
1G
